12 Additional GLM topics | Exam PA Study Guide, Spring 2022
…
12.4 Example

In the Hospital Readmission sample project, one of the predictor variables, “Length of stay,” is the number of days since a person has been readmitted to the hospital. You can tell that it is right-skewd because the median is higher than the mean.

summary(readmission$LOS)

##    Min. 1st Qu.  Median    Mean 3rd Qu.    Max. 
##   1.000   3.000   5.000   6.693   8.000  36.000

But it could also be thought of as a discrete variable because it only takes on 36 values. Should you still apply a log transform?

readmission %>% count(LOS)

## # A tibble: 36 × 2
##      LOS     n
##    <dbl> <int>
##  1     1   986
##  2     2  7646
##  3     3  9775
##  4     4 11325
##  5     5  8365
##  6     6  6020
##  7     7  4600
##  8     8  3534
##  9     9  2719
## 10    10  1997
## # … with 26 more rows
…
