7 Data exploration | Predictive Analytics for Actuaries
…
The CASE WHEN function is quite similar to SQL. For example, we can create a column which is 0 when age < 50, 1 when 50 <= age <= 70, and 2 when age > 70.

health_insurance %>% 
  mutate(age_bucket = case_when(age < 50 ~ 0,
                                age <= 70 ~ 1,
                                age > 70 ~ 2)) %>% 
  select(age, age_bucket)

## # A tibble: 1,338 x 2
##      age age_bucket
##    <dbl>      <dbl>
##  1    19          0
##  2    18          0
##  3    28          0
##  4    33          0
##  5    32          0
##  6    31          0
##  7    46          0
##  8    37          0
##  9    37          0
## 10    60          1
## # ... with 1,328 more rows
…
